Tidyverse Essentials - dplyr – As-yet-undecided
…
Use .by to group our selection in a single expression. We return the max avg mpg for each model type:

mpg %>% 
    mutate(`avg mpg` = ((cty+hwy)/2),
           `max avg mpg` = max(`avg mpg`),
           .by = model,
1           .keep = "used")

1

Now we keep only columns used in our mutate verb, including those used in the calculations.

# A tibble: 234 × 5
   model        cty   hwy `avg mpg` `max avg mpg`
   <chr>      <int> <int>     <dbl>         <dbl>
 1 a4            18    29      23.5          25.5
 2 a4            21    29      25            25.5
 3 a4            20    31      25.5          25.5
 4 a4            21    30      25.5          25.5
 5 a4            16    26      21            25.5
 6 a4            18    26      22            25.5
 7 a4            18    27      22.5          25.5
 8 a4 quattro    18    26      22            24  
 9 a4 quattro    16    25      20.5          24  
10 a4 quattro    20    28      24            24  
# ℹ 224 more rows
…
Removes rows with duplicate values

Specify columns in distinct to select only those column

# will create a table where the combination 
# of manufacturer and model is distinct
mpg %>% 
  select(manufacturer, model) %>% 
1  distinct()

1

Because no columns are specified, distinct returns all columns

# A tibble: 38 × 2
   manufacturer model             
   <chr>        <chr>             
 1 audi         a4                
 2 audi         a4 quattro        
 3 audi         a6 quattro        
 4 chevrolet    c1500 suburban 2wd
 5 chevrolet    corvette          
 6 chevrolet    k1500 tahoe 4wd   
 7 chevrolet    malibu            
 8 dodge        caravan 2wd       
 9 dodge        dakota pickup 4wd 
10 dodge        durango 4wd       
# ℹ 28 more rows
…
